<svg width="1442" height="1027" viewBox="0 0 1442 1027" fill="none" xmlns="http://www.w3.org/2000/svg">
<g clip-path="url(#clip0)">
<rect width="1440" height="1024" transform="translate(1441.74 1024) rotate(179.903)" fill="#EDF0F5"/>
<path d="M1300.68 -187.214C1337.8 -80.3505 1289.96 45.6932 1180.48 163.457C1071.14 281.074 901.027 389.551 696.014 460.773C491.001 531.995 290.276 552.346 131.565 527.851C-27.3455 503.326 -143.032 434.094 -180.157 327.231C-217.281 220.367 -169.434 94.3233 -59.9548 -23.4406C49.3871 -141.057 219.496 -249.535 424.509 -320.757C629.523 -391.978 830.247 -412.329 988.959 -387.835C1147.87 -363.31 1263.56 -294.078 1300.68 -187.214Z" fill="#065446" stroke="#B9966E" stroke-width="8"/>
<path d="M1747.28 737.321C1779.22 829.274 1733.44 939.627 1631.1 1044.12C1528.95 1148.42 1371.34 1245.85 1182.42 1311.48C993.495 1377.12 809.416 1398.38 664.607 1379.88C519.526 1361.34 415.19 1303.14 383.245 1211.19C351.3 1119.23 397.08 1008.88 499.421 904.389C601.569 800.094 759.187 702.656 948.108 637.025C1137.03 571.393 1321.11 550.125 1465.92 568.627C1611 587.165 1715.33 645.367 1747.28 737.321Z" fill="#065446" stroke="#B9966E" stroke-width="8"/>
</g>
<defs>
<clipPath id="clip0">
<rect width="1440" height="1024" fill="white" transform="translate(1441.74 1024) rotate(179.903)"/>
</clipPath>
</defs>
</svg>
